[gd_scene load_steps=8 format=2]

[ext_resource path="res://assets/background.png" type="Texture" id=1]
[ext_resource path="res://assets/tileset.tres" type="TileSet" id=2]
[ext_resource path="res://assets/Sprites/Moon.png" type="Texture" id=3]
[ext_resource path="res://src/Actors/Player.tscn" type="PackedScene" id=4]
[ext_resource path="res://src/Actors/Enemy.tscn" type="PackedScene" id=5]
[ext_resource path="res://src/Objects/Coin.tscn" type="PackedScene" id=6]
[ext_resource path="res://src/Objects/Tunel.tscn" type="PackedScene" id=7]

[node name="Level1" type="Node2D"]
position = Vector2( -14, 0 )

[node name="CanvasLayer" type="CanvasLayer" parent="."]
layer = -100

[node name="background" type="TextureRect" parent="CanvasLayer"]
anchor_right = 1.0
anchor_bottom = 1.0
margin_left = -14.0
margin_right = 1906.0
margin_bottom = 1080.0
texture = ExtResource( 1 )

[node name="TileMap" type="TileMap" parent="."]
tile_set = ExtResource( 2 )
cell_size = Vector2( 80, 80 )
collision_layer = 8
collision_mask = 0
format = 1
tile_data = PoolIntArray( 0, -1610612736, 0, 65536, -1610612736, 0, 131072, -1610612736, 0, 131123, 1, 0, 131124, 0, 0, 131125, -1610612735, 0, 196608, -1610612736, 0, 196659, -1073741824, 0, 262144, -1610612736, 0, 262145, 1, 0, 262146, 0, 0, 262147, -1610612735, 0, 262182, 1, 0, 262183, 0, 0, 262184, -1610612735, 0, 262195, -1073741824, 0, 327680, -1610612736, 0, 327695, 1, 0, 327696, 0, 0, 327697, -1610612735, 0, 327717, 1, 0, 327718, 1610612736, 0, 327719, 1610612736, 0, 327720, 1610612736, 0, 327721, -1610612735, 0, 327728, 0, 0, 327729, 0, 0, 327731, -1073741824, 0, 393216, -1610612736, 0, 393226, 1, 0, 393227, 0, 0, 393228, -1610612735, 0, 393232, -1073741823, 0, 393233, -1610612736, 0, 393267, -1073741824, 0, 458752, -1610612736, 0, 458755, 1, 0, 458756, 0, 0, 458757, -1610612735, 0, 458762, -1073741824, 0, 458769, -1073741823, 0, 458772, 1, 0, 458773, 0, 0, 458774, -1610612735, 0, 458784, 1, 0, 458785, 0, 0, 458786, 0, 0, 458787, 0, 0, 458788, -1610612735, 0, 458796, 1, 0, 458797, 0, 0, 458798, 0, 0, 458799, 0, 0, 458800, -1610612735, 0, 458803, -1073741824, 0, 524288, 0, 0, 524289, 0, 0, 524290, 0, 0, 524291, 0, 0, 524292, 0, 0, 524293, 0, 0, 524294, 0, 0, 524295, 0, 0, 524296, 0, 0, 524297, 0, 0, 524298, 0, 0, 524299, 0, 0, 524300, -1610612735, 0, 524319, 1, 0, 524339, -1073741824, 0, 589824, -1610612736, 0, 589839, 0, 0, 589854, 1, 0, 589866, 0, 0, 589875, -1073741824, 0, 655360, -1610612736, 0, 655389, 1, 0, 655411, -1073741824, 0, 720896, 1, 0, 720897, 0, 0, 720898, 0, 0, 720899, 0, 0, 720900, 0, 0, 720901, 0, 0, 720902, 0, 0, 720903, 0, 0, 720904, 0, 0, 720905, 0, 0, 720906, 0, 0, 720907, 0, 0, 720908, 0, 0, 720909, 0, 0, 720910, 0, 0, 720911, 0, 0, 720912, 0, 0, 720913, 0, 0, 720914, 0, 0, 720915, 0, 0, 720916, 0, 0, 720917, 0, 0, 720918, 0, 0, 720919, 0, 0, 720920, 0, 0, 720921, 0, 0, 720922, 0, 0, 720923, 0, 0, 720924, 0, 0, 720925, 0, 0, 720926, 0, 0, 720927, 0, 0, 720928, 0, 0, 720929, 0, 0, 720930, 0, 0, 720931, 0, 0, 720932, 0, 0, 720933, 0, 0, 720934, 0, 0, 720935, 0, 0, 720936, 0, 0, 720937, 0, 0, 720938, 0, 0, 720939, 0, 0, 720940, 0, 0, 720941, 0, 0, 720942, 0, 0, 720943, 0, 0, 720944, 0, 0, 720945, 0, 0, 720946, -1610612735, 0, 720947, -1073741823, 0 )

[node name="Moon" type="Sprite" parent="."]
position = Vector2( 710.125, 199.75 )
scale = Vector2( 0.653651, 0.66704 )
texture = ExtResource( 3 )

[node name="Player" parent="." instance=ExtResource( 4 )]
position = Vector2( 127, 167 )

[node name="Enemy" parent="." instance=ExtResource( 5 )]
position = Vector2( 2719, 515 )

[node name="Enemy2" parent="." instance=ExtResource( 5 )]
position = Vector2( 1315, 401 )

[node name="Enemy3" parent="." instance=ExtResource( 5 )]
position = Vector2( 746, 640 )

[node name="Enemy4" parent="." instance=ExtResource( 5 )]
position = Vector2( 3137, 322 )

[node name="Coin2" parent="." instance=ExtResource( 6 )]
position = Vector2( 145, 607 )

[node name="Coin3" parent="." instance=ExtResource( 6 )]
position = Vector2( 650, 461 )

[node name="Coin4" parent="." instance=ExtResource( 6 )]
position = Vector2( 839, 437 )

[node name="Coin5" parent="." instance=ExtResource( 6 )]
position = Vector2( 1405, 351 )

[node name="Coin6" parent="." instance=ExtResource( 6 )]
position = Vector2( 1242, 678 )

[node name="Coin7" parent="." instance=ExtResource( 6 )]
position = Vector2( 167, 818 )

[node name="Coin8" parent="." instance=ExtResource( 6 )]
position = Vector2( 375, 815 )

[node name="Coin9" parent="." instance=ExtResource( 6 )]
position = Vector2( 568, 815 )

[node name="Coin" parent="." instance=ExtResource( 6 )]
editor/display_folded = true
position = Vector2( 278, 270 )

[node name="Coin10" parent="." instance=ExtResource( 6 )]
position = Vector2( 356, 512 )

[node name="Coin11" parent="." instance=ExtResource( 6 )]
position = Vector2( 537, 596 )

[node name="Coin12" parent="." instance=ExtResource( 6 )]
position = Vector2( 766, 814 )

[node name="Coin13" parent="." instance=ExtResource( 6 )]
position = Vector2( 990, 811 )

[node name="Coin14" parent="." instance=ExtResource( 6 )]
position = Vector2( 1095, 365 )

[node name="Coin15" parent="." instance=ExtResource( 6 )]
position = Vector2( 1396, 814 )

[node name="Coin16" parent="." instance=ExtResource( 6 )]
position = Vector2( 1726, 483 )

[node name="Coin17" parent="." instance=ExtResource( 6 )]
position = Vector2( 1719, 685 )

[node name="Coin18" parent="." instance=ExtResource( 6 )]
position = Vector2( 1958, 815 )

[node name="Coin19" parent="." instance=ExtResource( 6 )]
position = Vector2( 2351, 752 )

[node name="Coin20" parent="." instance=ExtResource( 6 )]
position = Vector2( 2512, 591 )

[node name="Coin21" parent="." instance=ExtResource( 6 )]
position = Vector2( 2535, 820 )

[node name="Coin22" parent="." instance=ExtResource( 6 )]
position = Vector2( 2889, 500 )

[node name="Coin23" parent="." instance=ExtResource( 6 )]
position = Vector2( 2997, 348 )

[node name="Coin24" parent="." instance=ExtResource( 6 )]
position = Vector2( 3327, 334 )

[node name="Coin25" parent="." instance=ExtResource( 6 )]
position = Vector2( 3142, 192 )

[node name="Coin26" parent="." instance=ExtResource( 6 )]
position = Vector2( 4186, 100 )

[node name="Coin27" parent="." instance=ExtResource( 6 )]
position = Vector2( 3920, 341 )

[node name="Coin28" parent="." instance=ExtResource( 6 )]
position = Vector2( 3659, 498 )

[node name="Coin29" parent="." instance=ExtResource( 6 )]
position = Vector2( 2774, 693 )

[node name="Coin30" parent="." instance=ExtResource( 6 )]
position = Vector2( 3010, 817 )

[node name="Coin31" parent="." instance=ExtResource( 6 )]
position = Vector2( 3258, 695 )

[node name="Coin32" parent="." instance=ExtResource( 6 )]
position = Vector2( 3517, 813 )

[node name="Coin33" parent="." instance=ExtResource( 6 )]
position = Vector2( 3783, 695 )

[node name="Coin34" parent="." instance=ExtResource( 6 )]
position = Vector2( 4020, 813 )

[node name="Tunel" parent="." instance=ExtResource( 7 )]
position = Vector2( 4499, 203 )
